<svg version="1.0" xmlns="http://www.w3.org/2000/svg"
 width="64.000000px" height="64.000000px" viewBox="0 0 64.000000 64.000000"
 preserveAspectRatio="xMidYMid meet">

<g transform="translate(0.000000,64.000000) scale(0.100000,-0.100000)"
fill="#000000" stroke="none">
<path d="M275 518 c-27 -16 -43 -38 -50 -70 -6 -23 -12 -27 -48 -30 l-42 -3 0
-126 c0 -175 -6 -169 185 -169 191 0 185 -6 185 169 l0 126 -42 3 c-24 2 -43
8 -43 14 0 5 -7 25 -15 43 -24 49 -84 69 -130 43z m98 -40 c9 -11 17 -29 17
-39 0 -17 -8 -19 -70 -19 -75 0 -83 7 -59 51 22 42 79 45 112 7z m-153 -108
c0 -11 7 -20 15 -20 8 0 15 9 15 20 0 18 7 20 70 20 63 0 70 -2 70 -20 0 -11
5 -20 11 -20 6 0 13 9 16 20 4 14 14 20 34 20 l29 0 0 -109 c0 -145 5 -141
-160 -141 -165 0 -160 -4 -160 141 l0 109 30 0 c23 0 30 -4 30 -20z"/>
</g>
</svg>
